…
``` r
# mtcars %>% group_by(gear) %>% mutate(ttest = stats::t.test(mpg))
```

But the following will

``` r
tresult <- mtcars %>% group_by(gear) %>% mutate(ttest = list(stats::t.test(mpg)))
print(tresult)
```

    ## # A tibble: 32 × 12
    ## # Groups:   gear [3]
    ##      mpg   cyl  disp    hp  drat    wt  qsec    vs    am  gear  carb ttest  
    ##    <dbl> <dbl> <dbl> <dbl> <dbl> <dbl> <dbl> <dbl> <dbl> <dbl> <dbl> <list> 
    ##  1  21       6  160    110  3.9   2.62  16.5     0     1     4     4 <htest>
    ##  2  21       6  160    110  3.9   2.88  17.0     0     1     4     4 <htest>
    ##  3  22.8     4  108     93  3.85  2.32  18.6     1     1     4     1 <htest>
    ##  4  21.4     6  258    110  3.08  3.22  19.4     1     0     3     1 <htest>
    ##  5  18.7     8  360    175  3.15  3.44  17.0     0     0     3     2 <htest>
    ##  6  18.1     6  225    105  2.76  3.46  20.2     1     0     3     1 <htest>
    ##  7  14.3     8  360    245  3.21  3.57  15.8     0     0     3     4 <htest>
    ##  8  24.4     4  147.    62  3.69  3.19  20       1     0     4     2 <htest>
    ##  9  22.8     4  141.    95  3.92  3.15  22.9     1     0     4     2 <htest>
    ## 10  19.2     6  168.   123  3.92  3.44  18.3     1     0     4     4 <htest>
    ## # ℹ 22 more rows

using mutate and the output is not singular then you need to wrap it in
a list using list

``` r
# We can extract the pvalue for all rows as:
tresult %>% mutate(pval = ttest[[1]]$p.value)
```

    ## # A tibble: 32 × 13
    ## # Groups:   gear [3]
    ##      mpg   cyl  disp    hp  drat    wt  qsec    vs    am  gear  carb ttest  
    ##    <dbl> <dbl> <dbl> <dbl> <dbl> <dbl> <dbl> <dbl> <dbl> <dbl> <dbl> <list> 
    ##  1  21       6  160    110  3.9   2.62  16.5     0     1     4     4 <htest>
    ##  2  21       6  160    110  3.9   2.88  17.0     0     1     4     4 <htest>
    ##  3  22.8     4  108     93  3.85  2.32  18.6     1     1     4     1 <htest>
    ##  4  21.4     6  258    110  3.08  3.22  19.4     1     0     3     1 <htest>
    ##  5  18.7     8  360    175  3.15  3.44  17.0     0     0     3     2 <htest>
    ##  6  18.1     6  225    105  2.76  3.46  20.2     1     0     3     1 <htest>
    ##  7  14.3     8  360    245  3.21  3.57  15.8     0     0     3     4 <htest>
    ##  8  24.4     4  147.    62  3.69  3.19  20       1     0     4     2 <htest>
    ##  9  22.8     4  141.    95  3.92  3.15  22.9     1     0     4     2 <htest>
    ## 10  19.2     6  168.   123  3.92  3.44  18.3     1     0     4     4 <htest>
    ## # ℹ 22 more rows
    ## # ℹ 1 more variable: pval <dbl>

Or rather use a map to be consisten but remember this works inside out
but it is tricky but powerful

``` r
# Or alternatively using map as:
tresult %>% mutate(pval = unlist(map(ttest, "p.value")))
```

    ## # A tibble: 32 × 13
    ## # Groups:   gear [3]
    ##      mpg   cyl  disp    hp  drat    wt  qsec    vs    am  gear  carb ttest  
    ##    <dbl> <dbl> <dbl> <dbl> <dbl> <dbl> <dbl> <dbl> <dbl> <dbl> <dbl> <list> 
    ##  1  21       6  160    110  3.9   2.62  16.5     0     1     4     4 <htest>
    ##  2  21       6  160    110  3.9   2.88  17.0     0     1     4     4 <htest>
    ##  3  22.8     4  108     93  3.85  2.32  18.6     1     1     4     1 <htest>
    ##  4  21.4     6  258    110  3.08  3.22  19.4     1     0     3     1 <htest>
    ##  5  18.7     8  360    175  3.15  3.44  17.0     0     0     3     2 <htest>
    ##  6  18.1     6  225    105  2.76  3.46  20.2     1     0     3     1 <htest>
    ##  7  14.3     8  360    245  3.21  3.57  15.8     0     0     3     4 <htest>
    ##  8  24.4     4  147.    62  3.69  3.19  20       1     0     4     2 <htest>
    ##  9  22.8     4  141.    95  3.92  3.15  22.9     1     0     4     2 <htest>
    ## 10  19.2     6  168.   123  3.92  3.44  18.3     1     0     4     4 <htest>
    ## # ℹ 22 more rows
    ## # ℹ 1 more variable: pval <dbl>
…
# Now we will use this function as follows (after saving and sourcing it of course....):

# As a quick example:

 return_mat_Quick = fmxdat::asisa %>% filter(Funds %in% paste0("Fund_", 1:5)) %>% select(date, Funds, Returns) %>% filter(date > lubridate::ymd(20150101)) %>% spread(Funds, Returns)
 impute_missing_returns(return_mat_Quick, impute_returns_method = "NONE")
```

    ## Warning in impute_missing_returns(return_mat_Quick, impute_returns_method =
    ## "NONE"): There are missing values in the return matrix.. Consider maybe using
    ## impute_returns_method = 'Drawn_Distribution_Own' /
    ## 'Drawn_Distribution_Collective'

    ## # A tibble: 90 × 6
    ##    date          Fund_1  Fund_2   Fund_3   Fund_4    Fund_5
    ##    <date>         <dbl>   <dbl>    <dbl>    <dbl>     <dbl>
    ##  1 2015-01-31  0.00411   0.0107  0.0338  NA        0.000464
    ##  2 2015-02-28  0.0501    0.0209  0.0457  NA        0.0521  
    ##  3 2015-03-31 -0.0182   -0.0352  0.0218  NA        0.00500 
    ##  4 2015-04-30  0.0335    0.0388  0.0290  NA        0.0682  
    ##  5 2015-05-31  0.000094 -0.0211 -0.0201  NA       -0.0432  
    ##  6 2015-06-30 -0.0164   -0.0263 -0.00556 NA       -0.0181  
    ##  7 2015-07-31  0.0576   -0.0132  0.0124  NA       -0.0297  
    ##  8 2015-08-31 -0.00583  -0.0265 -0.0289  -0.0305  -0.0336  
    ##  9 2015-09-30 -0.0317   -0.0307  0.0104   0.00994 -0.0502  
    ## 10 2015-10-31  0.0357    0.0587  0.0631   0.0765   0.0693  
    ## # ℹ 80 more rows

Now lets look at how the different methods work and the outcomes

Average

``` r
 impute_missing_returns(return_mat_Quick, impute_returns_method = "Average")
```

    ## # A tibble: 90 × 6
    ##    date          Fund_1  Fund_2   Fund_3   Fund_4    Fund_5
    ##    <date>         <dbl>   <dbl>    <dbl>    <dbl>     <dbl>
    ##  1 2015-01-31  0.00411   0.0107  0.0338   0.0123   0.000464
    ##  2 2015-02-28  0.0501    0.0209  0.0457   0.0422   0.0521  
    ##  3 2015-03-31 -0.0182   -0.0352  0.0218  -0.00663  0.00500 
    ##  4 2015-04-30  0.0335    0.0388  0.0290   0.0423   0.0682  
    ##  5 2015-05-31  0.000094 -0.0211 -0.0201  -0.0211  -0.0432  
    ##  6 2015-06-30 -0.0164   -0.0263 -0.00556 -0.0166  -0.0181  
    ##  7 2015-07-31  0.0576   -0.0132  0.0124   0.00680 -0.0297  
    ##  8 2015-08-31 -0.00583  -0.0265 -0.0289  -0.0305  -0.0336  
    ##  9 2015-09-30 -0.0317   -0.0307  0.0104   0.00994 -0.0502  
    ## 10 2015-10-31  0.0357    0.0587  0.0631   0.0765   0.0693  
    ## # ℹ 80 more rows

Drawn distribution of the own stock (distribution and therefor
bootstraped return is based only on its own distribution of returns)

``` r
 impute_missing_returns(return_mat_Quick, impute_returns_method = "Drawn_Distribution_Own")
```

    ## # A tibble: 90 × 6
    ##    date          Fund_1  Fund_2   Fund_3    Fund_4    Fund_5
    ##    <date>         <dbl>   <dbl>    <dbl>     <dbl>     <dbl>
    ##  1 2015-01-31  0.00411   0.0107  0.0338   0.0387    0.000464
    ##  2 2015-02-28  0.0501    0.0209  0.0457   0.00691   0.0521  
    ##  3 2015-03-31 -0.0182   -0.0352  0.0218  -0.0218    0.00500 
    ##  4 2015-04-30  0.0335    0.0388  0.0290   0.0379    0.0682  
    ##  5 2015-05-31  0.000094 -0.0211 -0.0201   0.000862 -0.0432  
    ##  6 2015-06-30 -0.0164   -0.0263 -0.00556  0.000106 -0.0181  
    ##  7 2015-07-31  0.0576   -0.0132  0.0124   0.0508   -0.0297  
    ##  8 2015-08-31 -0.00583  -0.0265 -0.0289  -0.0305   -0.0336  
    ##  9 2015-09-30 -0.0317   -0.0307  0.0104   0.00994  -0.0502  
    ## 10 2015-10-31  0.0357    0.0587  0.0631   0.0765    0.0693  
    ## # ℹ 80 more rows

Now the collective distribution such that the bootstapped return is
based on the distribution of of all the stocks in the portfolio

``` r
 impute_missing_returns(return_mat_Quick, impute_returns_method = "Drawn_Distribution_Collective")
```

    ## # A tibble: 90 × 6
    ##    date          Fund_1  Fund_2   Fund_3   Fund_4    Fund_5
    ##    <date>         <dbl>   <dbl>    <dbl>    <dbl>     <dbl>
    ##  1 2015-01-31  0.00411   0.0107  0.0338   0.00969  0.000464
    ##  2 2015-02-28  0.0501    0.0209  0.0457   0.0364   0.0521  
    ##  3 2015-03-31 -0.0182   -0.0352  0.0218  -0.0285   0.00500 
    ##  4 2015-04-30  0.0335    0.0388  0.0290   0.0349   0.0682  
    ##  5 2015-05-31  0.000094 -0.0211 -0.0201   0.0585  -0.0432  
    ##  6 2015-06-30 -0.0164   -0.0263 -0.00556 -0.0124  -0.0181  
    ##  7 2015-07-31  0.0576   -0.0132  0.0124   0.0242  -0.0297  
    ##  8 2015-08-31 -0.00583  -0.0265 -0.0289  -0.0305  -0.0336  
    ##  9 2015-09-30 -0.0317   -0.0307  0.0104   0.00994 -0.0502  
    ## 10 2015-10-31  0.0357    0.0587  0.0631   0.0765   0.0693  
    ## # ℹ 80 more rows
…
# And now we are ready to combine this all into getting optimal weights given these constraints:
  
# we will use the quadprog package"
  w.opt <- 
    quadprog::solve.QP(Dmat = Sigma,
                            dvec = mu, 
                            Amat = Amat, 
                            bvec = bvec, 
                            meq = meq)$solution

 result.QP <- tibble(stocks = colnames(Sigma), weight = w.opt) 
 result.QP
```

    ## # A tibble: 50 × 2
    ##    stocks         weight
    ##    <chr>           <dbl>
    ##  1 ADS GR Equity  0.01  
    ##  2 AFX GR Equity  0.01  
    ##  3 AIR GR Equity  0.0100
    ##  4 ALV GR Equity  0.0100
    ##  5 AT1 GR Equity  0.0100
    ##  6 BAS GR Equity  0.0100
    ##  7 BAYN GR Equity 0.0100
    ##  8 BEI GR Equity  0.0100
    ##  9 BMW GR Equity  0.0100
    ## 10 CBK GR Equity  0.0100
    ## # ℹ 40 more rows
…
 
  if(printmsg)   optimw <- optimw %>% mutate(Result = glue::glue("Failed to Converge: {Type}"))
  
}
     optimw
}

My_Weights <- 
  optim_foo(Type = "mv", mu, Sigma, LB, UB, printmsg = T)

My_Weights
```

    ## # A tibble: 70 × 3
    ##    Tickers            mv Result                
    ##    <chr>           <dbl> <glue>                
    ##  1 1COV GR Equity 0.0143 Failed to Converge: mv
    ##  2 ADS GR Equity  0.0143 Failed to Converge: mv
    ##  3 AFX GR Equity  0.0143 Failed to Converge: mv
    ##  4 AIR GR Equity  0.0143 Failed to Converge: mv
    ##  5 ALV GR Equity  0.0143 Failed to Converge: mv
    ##  6 AT1 GR Equity  0.0143 Failed to Converge: mv
    ##  7 B4B GR Equity  0.0143 Failed to Converge: mv
    ##  8 BAS GR Equity  0.0143 Failed to Converge: mv
    ##  9 BAYN GR Equity 0.0143 Failed to Converge: mv
    ## 10 BC8 GR Equity  0.0143 Failed to Converge: mv
    ## # ℹ 60 more rows
To have multiple solutions side by side (set off printmsg)

``` r
My_Weights <- 
  left_join(
  optim_foo(Type = "mv", mu, Sigma, LB, UB, printmsg = F),
  optim_foo(Type = "minvol", mu, Sigma, LB, UB, printmsg = F),
  by = c("Tickers")) %>% 
    left_join(.,optim_foo(Type = "erc", mu, Sigma, LB, UB, printmsg = F),by = c("Tickers")) %>% 
      left_join(.,optim_foo(Type = "riskeff", mu, Sigma, LB, UB, printmsg = F),by = c("Tickers"))
  
My_Weights
```

    ## # A tibble: 70 × 5
    ##    Tickers            mv  minvol     erc riskeff
    ##    <chr>           <dbl>   <dbl>   <dbl>   <dbl>
    ##  1 1COV GR Equity 0.0143 0.00662 0.0162   0.0143
    ##  2 ADS GR Equity  0.0143 0.001   0.00909  0.0143
    ##  3 AFX GR Equity  0.0143 0.001   0.0118   0.0143
    ##  4 AIR GR Equity  0.0143 0.00100 0.00877  0.0143
    ##  5 ALV GR Equity  0.0143 0.00100 0.00800  0.0143
    ##  6 AT1 GR Equity  0.0143 0.0570  0.0341   0.0143
    ##  7 B4B GR Equity  0.0143 0.0530  0.0314   0.0143
    ##  8 BAS GR Equity  0.0143 0.00100 0.00773  0.0143
    ##  9 BAYN GR Equity 0.0143 0.00100 0.00832  0.0143
    ## 10 BC8 GR Equity  0.0143 0.00100 0.00793  0.0143
    ## # ℹ 60 more rows
…
  mutate(date = EOM_datevec , Look_Back_Period = LookBackSel)
  
}

Result <- 
EOM_datevec %>% map_df(~Roll_optimizer(return_mat, EOM_datevec = ., LookBackSel = 36))

Result
```

    ## # A tibble: 8,540 × 7
    ##    Tickers            mv  minvol     erc riskeff date       Look_Back_Period
    ##    <chr>           <dbl>   <dbl>   <dbl>   <dbl> <date>                <dbl>
    ##  1 1COV GR Equity 0.0143 0.00662 0.0162   0.0143 2010-01-29               36
    ##  2 ADS GR Equity  0.0143 0.001   0.00909  0.0143 2010-01-29               36
    ##  3 AFX GR Equity  0.0143 0.001   0.0118   0.0143 2010-01-29               36
    ##  4 AIR GR Equity  0.0143 0.00100 0.00877  0.0143 2010-01-29               36
    ##  5 ALV GR Equity  0.0143 0.00100 0.00800  0.0143 2010-01-29               36
    ##  6 AT1 GR Equity  0.0143 0.0570  0.0341   0.0143 2010-01-29               36
    ##  7 B4B GR Equity  0.0143 0.0530  0.0314   0.0143 2010-01-29               36
    ##  8 BAS GR Equity  0.0143 0.00100 0.00773  0.0143 2010-01-29               36
    ##  9 BAYN GR Equity 0.0143 0.00100 0.00832  0.0143 2010-01-29               36
    ## 10 BC8 GR Equity  0.0143 0.00100 0.00793  0.0143 2010-01-29               36
    ## # ℹ 8,530 more rows
